[
    {
        "Date": "28 April",
        "minDate": "28 Apr",
        "Time": "10:00 - 10:00 AM",
        "Place": "Richardson, TX",
        "Details": "Code Day Richardson",
        "Address": "2250 Lakeside Blvd Richardson, TX 75082, USA",
        "About": "T-Mobile is sponsoring and hosting Code Day for the 3rd year in a row.  This is a worldwide event where student programmers, artists, musicians, actors, and everyone else can get together and build apps & games for 24 hours",
        "Url": " https://codeday.org/dallas",
        "CreatedBy": "TMO OSS Working GroupCreated by: Michelle Balatico-Hayes"
    },
    {
        "Date": "15 May",
        "minDate": "15 May",
        "Time": "10:00 - 05:00 PM",
        "Place": "Munich, Germany",
        "Details": "Blockchain @ European Identity Conference",
        "Address": "2250 Lakeside Blvd Richardson, TX 75082, USA",
        "About": "T-Mobile is sponsoring and hosting Code Day for the 3rd year in a row.  This is a worldwide event where student programmers, artists, musicians, actors, and everyone else can get together and build apps & games for 24 hours",
        "Url": " https://codeday.org/dallas",
        "CreatedBy": "TMO OSS Working GroupCreated by: Michelle Balatico-Hayes"
    },
    {
        "Date": "16 July",
        "minDate": "16 July",
        "Time": "10:00 - 5:00 PM",
        "Place": "Portland, OR",
        "Details": "Netflix OSS stack @ OSSCON",
        "Address": "2250 Lakeside Blvd Richardson, TX 75082, USA",
        "About": "T-Mobile is sponsoring and hosting Code Day for the 3rd year in a row.  This is a worldwide event where student programmers, artists, musicians, actors, and everyone else can get together and build apps & games for 24 hours",
        "Url": " https://codeday.org/dallas",
        "CreatedBy": "TMO OSS Working GroupCreated by: Michelle Balatico-Hayes"
    },
    {
        "Date": "10 September",
        "minDate": "10 Sep",
        "Time": "10:00 - 5:00 PM",
        "Place": "Bellevue, WA",
        "Details": "Blockchain Seattle 2018",
        "Address": "2250 Lakeside Blvd Richardson, TX 75082, USA",
        "About": "T-Mobile is sponsoring and hosting Code Day for the 3rd year in a row.  This is a worldwide event where student programmers, artists, musicians, actors, and everyone else can get together and build apps & games for 24 hours",
        "Url": " https://codeday.org/dallas",
        "CreatedBy": "TMO OSS Working GroupCreated by: Michelle Balatico-Hayes"
    },
    {
        "Date": "10 September",
        "minDate": "10 Sep",
        "Time": "10:00 - 5:00 PM",
        "Place": "Bellevue, WA",
        "Details": "GitHub Users' Meetup",
        "Address": "2250 Lakeside Blvd Richardson, TX 75082, USA",
        "About": "T-Mobile is sponsoring and hosting Code Day for the 3rd year in a row.  This is a worldwide event where student programmers, artists, musicians, actors, and everyone else can get together and build apps & games for 24 hours",
        "Url": " https://codeday.org/dallas",
        "CreatedBy": "TMO OSS Working GroupCreated by: Michelle Balatico-Hayes"
    },
    {
        "Date": "10 October",
        "minDate": "10 Oct",
        "Time": "10:00 - 5:00 PM",
        "Place": "New York, NY",
        "Details": "New York Blockchain Summit",
        "Address": "2250 Lakeside Blvd Richardson, TX 75082, USA",
        "About": "T-Mobile is sponsoring and hosting Code Day for the 3rd year in a row.  This is a worldwide event where student programmers, artists, musicians, actors, and everyone else can get together and build apps & games for 24 hours",
        "Url": " https://codeday.org/dallas",
        "CreatedBy": "TMO OSS Working GroupCreated by: Michelle Balatico-Hayes"
    }
]
