[
    {
        "Name": "Conducktor",
        "Image": "logo-conducktor-red.svg",
        "Desc": "Lorem ipsum dolor sit amet, consectetur adipiscing elit, sed do eiusmod tempor incididunt ut labore et dolore magna aliqua. Ut enim ad minim veniam. "
    },
    {
        "Name": "Insights",
        "Image": "logo-insight-red.svg",
        "Desc": "Find the support options you need. Ask questions and get answers from experts and view frequently asked questions. "
    },
    {
        "Name": "Jazz Serverless",
        "Image": "logo-jazz-red.svg",
        "Desc": "Find the support options you need. Ask questions and get answers from experts and view frequently asked questions. "
    },
    {
        "Name": "Next",
        "Image": "logo-next-red.svg",
        "Desc": "An open-source Identity and Access Management Platform. It leverages the Sawtooth blockchain improve the status-quo of identity governance. "
    },
    {
        "Name": "PacBot",
        "Image": "logo-pacbot-red.svg",
        "Desc": "A platform for continuous compliance monitoring, compliance reporting and security automation for the cloud. "
    },
    {
        "Name": "Telemetry",
        "Image": "logo-ims-red.svg",
        "Desc": "Find the support options you need. Ask questions and get answers from experts and view frequently asked questions. "
    },
    {
        "Name": "Tvault",
        "Image": "logo-t-vault-red.svg",
        "Desc": "To simplify the process of secrets management, it builds on top of Harshicorp Vault to provide a higher-level of abstraction."
    }
]
