[
    {
        "Name": "Cloud support",
        "Image": "icon-cloud-support.svg",
        "Desc": "Find the support options you need. Ask questions and get answers from experts and view frequently asked questions. "
    },
    {
        "Name": "Documentation",
        "Image": "icon-documentation.svg",
        "Desc": "Start your cloud journey with how-to guides, samples and tutorials."
    },
    {
        "Name": "Training",
        "Image": "icon-training.svg",
        "Desc": "Become a game changer by taking up a course to master skills that will make you a leader and prepare you for certifications."
    },
    {
        "Name": "Intake",
        "Image": "icon-intake.svg",
        "Desc": "Submit new requests to track and monitor issues across your cloud applications, via a single request form."
    },
    {
        "Name": "Cloud Comparison",
        "Image": "icon-cloud-comparison.svg",
        "Desc": "A detailed cloud services comparison & mapping of Amazon AWS, Microsoft Azure, Google Cloud, IBM Cloud, Oracle Cloud."
    },
    {
        "Name": "Platform Strategy",
        "Image": "icon-platform-strategy.svg",
        "Desc": "Find resources to help understand and stratgeize the platform you want to choose."
    }
]
