<svg xmlns="http://www.w3.org/2000/svg" width="20" height="20" viewBox="0 0 20 20">
    <path fill="#afafaf" fill-rule="nonzero" d="M20 1.987L17.986 0 10 7.879 2.014 0 0 1.987l7.986 7.879L0 17.744l2.014 1.988L10 11.853l7.986 7.879L20 17.744l-7.986-7.878z"/>
</svg>
