<svg xmlns="http://www.w3.org/2000/svg" width="30" height="30" viewBox="0 0 30 30">
    <path fill="#E20074" fill-rule="nonzero" d="M15 0C6.727 0 0 6.727 0 15s6.727 15 15 15 15-6.727 15-15S23.273 0 15 0zm0 1.714A13.271 13.271 0 0 1 28.286 15 13.271 13.271 0 0 1 15 28.286 13.271 13.271 0 0 1 1.714 15 13.271 13.271 0 0 1 15 1.714zM14.674 6c-.53 0-.96.41-.96.915v8.23a.9.9 0 0 0 .48.787l6.645 3.658c.46.253 1.055.109 1.32-.329.265-.437.1-.99-.36-1.243l-6.165-3.401V6.915c0-.506-.43-.915-.96-.915z"/>
</svg>
