{
    "clientId": "115337104077-m8oiefg8ijrhrlmrpdjfg2i6eljcb07e.apps.googleusercontent.com",
    "apiKey": "AIzaSyA0Vp3wZLit5-ws5YFJaNpdBygyORjHeP0",
    "scope": "https://www.googleapis.com/auth/calendar",
    "discoveryDocs": [
        "https://www.googleapis.com/discovery/v1/apis/calendar/v3/rest"
    ]
}
