<svg xmlns="http://www.w3.org/2000/svg" width="44" height="47" viewBox="0 0 44 47">
    <path fill="#446281" fill-rule="nonzero" d="M43.405 23.324c0 2.78.02 5.56 0 8.34-.02 2.1-.906 3.825-2.543 5.173a8.08 8.08 0 0 1-1.165.785 7344.557 7344.557 0 0 1-14.085 7.97c-1.997 1.13-4.082 1.39-6.262.565a9.364 9.364 0 0 1-1.273-.61c-4.652-2.62-9.297-5.241-13.935-7.866-2.587-1.456-3.849-3.63-3.849-6.538.008-5.308-.009-10.615.008-15.915.007-2.156.825-3.98 2.525-5.384A8.806 8.806 0 0 1 4.1 8.988c4.657-2.642 9.314-5.278 13.97-7.909 2.514-1.424 5.023-1.445 7.538-.024l14.09 7.962c1.655.933 2.818 2.254 3.403 4.043.222.727.325 1.483.308 2.241-.007 2.674 0 5.348 0 8.02l-.004.003zm-40.813-.072v7.518a7.47 7.47 0 0 0 .103 1.444c.34 1.676 1.352 2.861 2.854 3.706 4.424 2.487 8.835 4.995 13.255 7.49.372.215.761.4 1.164.553 1.682.62 3.292.396 4.834-.481a1409.44 1409.44 0 0 1 7.996-4.522l5.478-3.1c1.84-1.046 2.861-2.603 2.871-4.693.025-5.223.015-10.445 0-15.67a5.722 5.722 0 0 0-.22-1.49c-.413-1.482-1.398-2.52-2.744-3.278-4.425-2.49-8.843-4.99-13.254-7.5-2.052-1.172-4.057-1.18-6.11-.01-4.39 2.502-8.796 4.977-13.194 7.47a7.78 7.78 0 0 0-1.022.66c-1.393 1.112-2.027 2.567-2.017 4.317.016 2.531.006 5.059.006 7.586zm19.692-5.65c1.02 0 2.041.027 3.06 0 2.073-.063 3.99 1.63 3.99 4.012v5.992c0 2.418-1.89 4-3.699 4.039-.976.02-1.955.036-2.929.033-1.323-.007-2.651.033-3.968-.07a3.762 3.762 0 0 1-3.463-3.751 241.296 241.296 0 0 1 0-6.444c.025-2.106 1.642-3.733 3.76-3.799 1.084-.032 2.17 0 3.258 0l-.01-.011zm-5.102 6.948c.006.958.031 1.914.05 2.866-.01.381.037.762.143 1.128.221.643.872 1.022 1.517 1.12.28.04.561.058.843.056 1.52.005 3.041.005 4.563 0 .412.009.825-.005 1.236-.04 1.128-.131 1.824-.848 1.839-1.988.03-2.038.03-4.079 0-6.122-.017-1.222-.8-1.995-2.014-2.01a266.788 266.788 0 0 0-6.127 0c-1.46.015-1.946 1.031-2.007 2.312-.04.888-.05 1.78-.043 2.678zm4.524-14.87c1.569.058 3.087.537 4.087 1.987.545.79.803 1.674.893 2.6.063.64-.279 1.043-.858 1.089-.579.045-.954-.284-1.094-.91-.221-.982-.418-1.877-1.364-2.484-1.238-.794-3.161-.607-4.022.59-.587.816-.85 1.742-1.02 2.693a23.625 23.625 0 0 0-.235 1.765c-.026.253-.13.35-.4.377-.366.041-.729.102-1.088.181-.37.076-.474.035-.472-.335.013-.429.048-.857.108-1.283.122-1.06.324-2.105.758-3.096.177-.42.393-.825.646-1.21.902-1.327 2.212-1.975 4.06-1.964zm7.634 9.742l-.007-.037c2.026-.168 4.214.505 5.669 2.03 1.825 1.906 1.832 4.582 0 6.47-1.402 1.44-3.138 2.015-5.066 2.035-.392 0-.402-.027-.36-.466.036-.235.056-.472.06-.71-.014-.355.152-.437.45-.438a5.204 5.204 0 0 0 2.835-.792c.478-.296.908-.67 1.273-1.11.89-1.119.845-2.51-.065-3.613-.991-1.202-2.51-1.754-3.993-1.802a.634.634 0 0 1-.391-.095.681.681 0 0 1-.19-.418l-.215-1.054zM14.198 29.898c-1.185.1-2.276-.153-3.33-.59a6.049 6.049 0 0 1-2.633-2.003c-1.249-1.7-1.199-3.815.14-5.452 1.374-1.662 3.843-2.635 5.976-2.476.086.427-.091.975-.226 1.416-.033.106-.257.19-.397.222-.604.13-1.227.176-1.819.346-.829.235-1.576.7-2.155 1.344-1.08 1.194-1.092 2.714-.014 3.915.77.863 1.777 1.327 2.889 1.557.355.075.715.119 1.078.13.334.009.446.145.44.471-.01.352.03.697.051 1.12zm1.974 2.662c.444.068.865.138 1.287.194.22.029.26.156.292.33.067.372.14.746.243 1.11a4.712 4.712 0 0 0 1.096 1.948c1.295 1.394 3.164 1.438 4.518.095.825-.817 1.233-1.812 1.393-2.904.08-.542.074-.54.661-.58.32-.023.638-.052 1.031-.083-.036.337-.053.649-.105.959-.247 1.477-.858 2.795-2.041 3.85-1.85 1.649-4.45 1.66-6.29 0-1.418-1.276-2.04-2.876-2.124-4.673.005-.083.018-.165.04-.246zm5.687-6.16a1.304 1.304 0 0 1-1.153-.664c-.236-.417-.23-.93.017-1.341.247-.41.695-.653 1.17-.634.351.002.686.15.928.408.241.258.368.604.35.96a1.294 1.294 0 0 1-.392.913c-.246.239-.578.368-.92.357z"/>
</svg>
