<svg xmlns="http://www.w3.org/2000/svg" width="60" height="42" viewBox="0 0 60 42">
    <path fill="#446281" fill-rule="nonzero" d="M11.318 24.898l-.013 5.65-8.486-8.525L0 19.191l2.832-2.819 8.525-8.486-.013 5.65-5.693 5.668 5.667 5.694zm36.883-11.327l.056-5.65 8.417 8.59 2.798 2.857-2.858 2.798-8.59 8.413.056-5.65 5.737-5.621L48.2 13.57zM50.15 2.94S43.432.63 40.107 6.697c-2.926 5.335-4.88 11.301-7.388 16.852C30.043 29.476 26 41.798 18.084 41.072c-1.897-.17-8.067-2.867-8.646-4.929 1.649.577 3.367.932 5.11 1.055 7.419.32 10.346-9.45 12.97-15.028a397.89 397.89 0 0 0 5.53-12.278c1.539-3.476 2.77-7.588 6.567-8.971 3.566-1.293 7.444.186 10.536 2.019zM22.024 23.56l.73-1.648 1.648.73-.73 1.649-1.648-.73zm2.045-4.611l.73-1.649 1.649.73-.73 1.649-1.649-.73zm2.041-4.618l.73-1.649 1.65.73-.731 1.65-1.649-.731z"/>
</svg>
