<svg xmlns="http://www.w3.org/2000/svg" width="36" height="37" viewBox="0 0 36 37">
    <g fill="none" fill-rule="nonzero">
        <path fill="#446281" d="M5.975 34.08l-2.202 2.223a1.39 1.39 0 0 1-.95.41 1.82 1.82 0 0 1-1.566-.503l-.726-.719a1.78 1.78 0 0 1 0-2.533l3.42-3.396a.99.99 0 0 0 0-1.412l-3.42-3.386a1.783 1.783 0 0 1 0-2.535l.726-.714a1.824 1.824 0 0 1 2.56 0l4.157 4.116c.429.078.888-.048 1.223-.378l3.914-3.858a1.387 1.387 0 0 1 1.957 0l.81.8a1.406 1.406 0 0 1 0 2.003l-3.923 3.884a1.406 1.406 0 0 0 0 1.992l3.417 3.422a1.406 1.406 0 0 1 0 1.99l-.846.843a1.389 1.389 0 0 1-1.974-.014l-3.383-3.452a1.39 1.39 0 0 0-1.792-.169L5.975 34.08zm8.655-17.784h-1.876a1.385 1.385 0 0 1-1.072-.503L6.385 9.328a1.383 1.383 0 0 0-1.545-.43 1.4 1.4 0 0 0-.919 1.325v4.672c0 .773-.622 1.4-1.39 1.4H1.39c-.768 0-1.39-.627-1.39-1.4V1.4C0 .627.622 0 1.39 0h1.878c.414 0 .807.185 1.072.506l5.297 6.446c.373.456.991.627 1.543.426.552-.2.92-.73.919-1.32V1.4c0-.774.622-1.401 1.39-1.401h1.14c.768 0 1.39.627 1.39 1.401v13.494c0 .773-.622 1.4-1.39 1.4zM34.8 2.24a1.39 1.39 0 0 1-1.38 1.401h-6.077a1.39 1.39 0 0 0-1.38 1.402 1.39 1.39 0 0 0 1.38 1.402h4.684c.762 0 1.38.627 1.38 1.402v.6a1.39 1.39 0 0 1-1.38 1.402h-4.684a1.39 1.39 0 0 0-1.38 1.402 1.39 1.39 0 0 0 1.38 1.401h6.078c.762 0 1.38.628 1.38 1.402v.84a1.39 1.39 0 0 1-1.38 1.4h-9.946a1.39 1.39 0 0 1-1.38-1.4V1.401A1.39 1.39 0 0 1 23.476 0h9.946c.762 0 1.38.628 1.38 1.402v.839zm-.29 21.84h-2.96c-.77 0-1.396.627-1.396 1.4v9.852c0 .774-.624 1.402-1.395 1.402H27.59c-.77 0-1.396-.628-1.396-1.402v-9.851c0-.774-.624-1.402-1.395-1.402h-2.965c-.771 0-1.396-.627-1.396-1.401v-.839c0-.774.625-1.401 1.396-1.401H34.51c.771 0 1.396.627 1.396 1.401v.839c0 .774-.625 1.401-1.396 1.401z"/>
        <path fill="#446281" d="M9.968 27.606l-6.151-6.09a1.824 1.824 0 0 0-2.56 0l-.726.713a1.783 1.783 0 0 0 0 2.535l3.42 3.386a.99.99 0 0 1 0 1.412l-3.42 3.396a1.78 1.78 0 0 0 0 2.533l.726.72a1.824 1.824 0 0 0 2.56 0l6.151-6.075a1.78 1.78 0 0 0 0-2.53zm-8.143 8.059l-.729-.721a.99.99 0 0 1 0-1.412l3.42-3.396a1.78 1.78 0 0 0 0-2.532l-3.42-3.386a.99.99 0 0 1 0-1.414l.729-.72a1.011 1.011 0 0 1 1.424 0l6.152 6.08a.99.99 0 0 1 0 1.412l-6.148 6.089c-.189.186-.445.291-.712.29a1.011 1.011 0 0 1-.716-.29z"/>
        <path fill="#FFF" d="M9.096 29.562l-6.108 6.055c-.188.186-.443.29-.708.29-.266 0-.52-.104-.708-.29L.848 34.9a.986.986 0 0 1 0-1.404l3.4-3.377c.7-.696.7-1.822 0-2.518l-3.4-3.367a.986.986 0 0 1 0-1.406l.724-.717a1.005 1.005 0 0 1 1.416 0l6.108 6.047a.986.986 0 0 1 0 1.404z"/>
    </g>
</svg>
