<svg xmlns="http://www.w3.org/2000/svg" width="222" height="69" viewBox="0 0 222 69">
    <defs>
        <filter id="b" width="111%" height="124.6%" x="-5.5%" y="-12.3%" filterUnits="objectBoundingBox">
            <feOffset dy="2" in="SourceAlpha" result="shadowOffsetOuter1"/>
            <feGaussianBlur in="shadowOffsetOuter1" result="shadowBlurOuter1" stdDeviation="10"/>
            <feColorMatrix in="shadowBlurOuter1" result="shadowMatrixOuter1" values="0 0 0 0 0 0 0 0 0 0 0 0 0 0 0 0 0 0 0.19641644 0"/>
            <feMerge>
                <feMergeNode in="shadowMatrixOuter1"/>
                <feMergeNode in="SourceGraphic"/>
            </feMerge>
        </filter>
        <linearGradient id="a" x1="50%" x2="50%" y1="24.77%" y2="100%">
            <stop offset="0%" stop-color="#FFF"/>
            <stop offset="100%" stop-color="#FFF" stop-opacity=".571"/>
        </linearGradient>
    </defs>
    <path fill="url(#a)" fill-rule="evenodd" d="M15.043 51.78h195.891c-9.875-19.524-30.211-29.067-61.009-28.626-46.196.66-50.7-15.032-90.782-14.56-26.72.314-41.42 14.71-44.1 43.187z" filter="url(#b)"/>
</svg>
