<svg xmlns="http://www.w3.org/2000/svg" width="75" height="69" viewBox="0 0 75 69">
    <path fill="#E20074" fill-rule="nonzero" d="M34.532 50.427H.317v-4h34.26l-15.21-15.141 2.822-2.835 20.044 19.953L22.19 68.358l-2.822-2.835 15.165-15.096zm5.233-31.809h34.518v4H39.809l15.158 15.097-2.822 2.834L32.11 20.596 52.145.643l2.822 2.834-15.202 15.141z"/>
</svg>
